{
    "name": "Alpaka",
    "home_location": "Weinhof 7, 89073 Ulm",
    "avatar": "images/Alpaka_Avatar-croped.jpg",
    "statistic": {
        "offerCount": 13,
        "servitudeCount": 5,
        "foodDonationCount": 4
    },
    "lastActivity": 1572711065516,
    "creationDay": 1572711065516,
    "password": "passwort123"
}